-3.549648e-01 0.000000e+00 1.000000e+00 1.000000e+00 2.500000e+00
-1.183216e-01 0.000000e+00 1.000000e+00 1.000000e+00 2.500000e+00
-1.170595e-01 1.051723e-02 9.911430e-01 9.876221e-01 2.491119e+00
-1.157975e-01 2.103446e-02 9.823486e-01 9.753756e-01 2.482255e+00
-1.145354e-01 3.155169e-02 9.736170e-01 9.632598e-01 2.473405e+00
-1.132733e-01 4.206892e-02 9.649473e-01 9.512728e-01 2.464572e+00
-1.120113e-01 5.258615e-02 9.563398e-01 9.394142e-01 2.455755e+00
-1.107492e-01 6.310338e-02 9.477935e-01 9.276823e-01 2.446953e+00
-1.094871e-01 7.362061e-02 9.393087e-01 9.160763e-01 2.438166e+00
-1.082251e-01 8.413784e-02 9.308845e-01 9.045950e-01 2.429396e+00
-1.069630e-01 9.465507e-02 9.225212e-01 8.932374e-01 2.420642e+00
-1.057009e-01 1.051723e-01 9.142178e-01 8.820019e-01 2.411903e+00
-1.044389e-01 1.156895e-01 9.059745e-01 8.708882e-01 2.403181e+00
-1.031768e-01 1.262068e-01 8.977906e-01 8.598943e-01 2.394474e+00
-1.019147e-01 1.367240e-01 8.896661e-01 8.490199e-01 2.385782e+00
-1.006526e-01 1.472412e-01 8.816003e-01 8.382634e-01 2.377107e+00
-9.939058e-02 1.577585e-01 8.735934e-01 8.276240e-01 2.368448e+00
-9.812851e-02 1.682757e-01 8.656446e-01 8.171005e-01 2.359804e+00
-9.686645e-02 1.787929e-01 8.577539e-01 8.066921e-01 2.351176e+00
-9.560438e-02 1.893101e-01 8.499206e-01 7.963971e-01 2.342563e+00
-9.434231e-02 1.998274e-01 8.421450e-01 7.862155e-01 2.333967e+00
-9.308024e-02 2.103446e-01 8.344260e-01 7.761453e-01 2.325387e+00
-9.181818e-02 2.208618e-01 8.267641e-01 7.661861e-01 2.316822e+00
-9.055611e-02 2.313791e-01 8.191583e-01 7.563363e-01 2.308273e+00
-8.929404e-02 2.418963e-01 8.116088e-01 7.465956e-01 2.299740e+00
-8.803197e-02 2.524135e-01 8.041148e-01 7.369623e-01 2.291223e+00
-8.676990e-02 2.629308e-01 7.966765e-01 7.274361e-01 2.282721e+00
-8.550783e-02 2.734480e-01 7.892931e-01 7.180153e-01 2.274235e+00
-8.424576e-02 2.839652e-01 7.819648e-01 7.086995e-01 2.265765e+00
-8.298369e-02 2.944824e-01 7.746909e-01 6.994873e-01 2.257311e+00
-8.172163e-02 3.049997e-01 7.674713e-01 6.903782e-01 2.248873e+00
-8.045956e-02 3.155169e-01 7.603055e-01 6.813707e-01 2.240450e+00
-7.919751e-02 3.260341e-01 7.531938e-01 6.724646e-01 2.232044e+00
-7.793544e-02 3.365514e-01 7.461351e-01 6.636583e-01 2.223653e+00
-7.667337e-02 3.470686e-01 7.391292e-01 6.549507e-01 2.215278e+00
-7.541131e-02 3.575858e-01 7.321764e-01 6.463414e-01 2.206919e+00
-7.414924e-02 3.681031e-01 7.252756e-01 6.378292e-01 2.198575e+00
-7.288717e-02 3.786203e-01 7.184272e-01 6.294133e-01 2.190247e+00
-7.162511e-02 3.891375e-01 7.116305e-01 6.210927e-01 2.181936e+00
-7.036304e-02 3.996547e-01 7.048855e-01 6.128668e-01 2.173639e+00
-6.910097e-02 4.101720e-01 6.981915e-01 6.047341e-01 2.165359e+00
-6.783890e-02 4.206892e-01 6.915488e-01 5.966944e-01 2.157095e+00
-6.657683e-02 4.312064e-01 6.849564e-01 5.887462e-01 2.148846e+00
-6.531476e-02 4.417237e-01 6.784146e-01 5.808892e-01 2.140613e+00
-6.405269e-02 4.522409e-01 6.719227e-01 5.731220e-01 2.132396e+00
-6.279062e-02 4.627581e-01 6.654808e-01 5.654442e-01 2.124195e+00
-6.152856e-02 4.732754e-01 6.590882e-01 5.578546e-01 2.116009e+00
-6.026649e-02 4.837926e-01 6.527450e-01 5.503526e-01 2.107839e+00
-5.900443e-02 4.943098e-01 6.464508e-01 5.429372e-01 2.099685e+00
-5.774236e-02 5.048270e-01 6.402050e-01 5.356075e-01 2.091547e+00
-5.648029e-02 5.153443e-01 6.340077e-01 5.283629e-01 2.083425e+00
-5.521822e-02 5.258615e-01 6.278583e-01 5.212023e-01 2.075318e+00
-5.395615e-02 5.363787e-01 6.217570e-01 5.141253e-01 2.067228e+00
-5.269408e-02 5.468960e-01 6.157030e-01 5.071306e-01 2.059153e+00
-5.143201e-02 5.574132e-01 6.096964e-01 5.002178e-01 2.051094e+00
-5.016994e-02 5.679305e-01 6.037366e-01 4.933858e-01 2.043051e+00
-4.890788e-02 5.784476e-01 5.978237e-01 4.866340e-01 2.035023e+00
-4.764581e-02 5.889649e-01 5.919571e-01 4.799615e-01 2.027011e+00
-4.638375e-02 5.994821e-01 5.861368e-01 4.733676e-01 2.019015e+00
-4.512168e-02 6.099994e-01 5.803621e-01 4.668514e-01 2.011035e+00
-4.385961e-02 6.205166e-01 5.746332e-01 4.604124e-01 2.003071e+00
-4.259754e-02 6.310338e-01 5.689495e-01 4.540496e-01 1.995122e+00
-4.133547e-02 6.415510e-01 5.633110e-01 4.477624e-01 1.987190e+00
-4.007341e-02 6.520683e-01 5.577172e-01 4.415498e-01 1.979273e+00
-3.881134e-02 6.625855e-01 5.521680e-01 4.354113e-01 1.971372e+00
-3.754927e-02 6.731027e-01 5.466629e-01 4.293461e-01 1.963487e+00
6.731027e-02 6.731027e-01 5.466629e-01 4.293461e-01 1.963487e+00
6.731027e-02 6.731027e-01 4.573280e-01 4.293461e-01 2.347036e+00
1.484743e-01 6.731027e-01 4.573280e-01 4.293461e-01 2.347036e+00
1.484743e-01 0.000000e+00 2.500000e-01 1.795000e-01 1.795000e+00
4.454228e-01 0.000000e+00 2.500000e-01 1.795000e-01 1.795000e+00
